AnÃ¡lise de Jogadores
…
players_adv %>% 
  filter(MP >= quantile(MP, 0.25)) %>% 
  group_by(Tm) %>% 
  filter(!(Tm == "TOT")) %>% # TIRANDO A GALERA SEM TIME
  summarise(per_med = mean(PER), per_sd = sd(PER)) %>% 
  arrange(desc(per_med))

## # A tibble: 30 x 3
##    Tm    per_med per_sd
##    <chr>   <dbl>  <dbl>
##  1 MIL      16.5   4.94
##  2 LAC      16.4   7.73
##  3 CHO      16.4   4.75
##  4 GSW      16.1   5.60
##  5 POR      15.6   6.31
##  6 IND      15.6   4.95
##  7 LAL      15.2   6.22
##  8 OKC      15.1   7.04
##  9 DEN      15.1   4.99
## 10 SAS      15.0   4.76
## # ... with 20 more rows
…
players_adv %>% 
  filter(MP >= quantile(MP, 0.25)) %>% 
  filter(USG. >= quantile(USG., 0.25)) %>% 
  group_by(Tm) %>% 
  count(sort = TRUE)

## # A tibble: 31 x 2
## # Groups:   Tm [31]
##    Tm        n
##    <chr> <int>
##  1 CLE      12
##  2 ATL      11
##  3 MIA      11
##  4 TOR      10
##  5 UTA      10
##  6 BOS       9
##  7 BRK       9
##  8 LAL       9
##  9 MEM       9
## 10 MIL       9
## # ... with 21 more rows
